%YAML 1.1
%TAG !u! tag:unity3d.com,2011:
--- !u!1001 &299076556121997751
PrefabInstance:
  m_ObjectHideFlags: 0
  serializedVersion: 2
  m_Modification:
    m_TransformParent: {fileID: 0}
    m_Modifications:
    - target: {fileID: 5612456959052480682, guid: 4d53bf594407ff3499f6421a7c16ad12,
        type: 3}
      propertyPath: m_Name
      value: OtherStar
      objectReference: {fileID: 0}
    - target: {fileID: 5612456959052480684, guid: 4d53bf594407ff3499f6421a7c16ad12,
        type: 3}
      propertyPath: m_LocalPosition.x
      value: -11.5
      objectReference: {fileID: 0}
    - target: {fileID: 5612456959052480684, guid: 4d53bf594407ff3499f6421a7c16ad12,
        type: 3}
      propertyPath: m_LocalPosition.y
      value: -0.53
      objectReference: {fileID: 0}
    - target: {fileID: 5612456959052480684, guid: 4d53bf594407ff3499f6421a7c16ad12,
        type: 3}
      propertyPath: m_LocalPosition.z
      value: 3.46
      objectReference: {fileID: 0}
    - target: {fileID: 5612456959052480684, guid: 4d53bf594407ff3499f6421a7c16ad12,
        type: 3}
      propertyPath: m_LocalRotation.x
      value: -0
      objectReference: {fileID: 0}
    - target: {fileID: 5612456959052480684, guid: 4d53bf594407ff3499f6421a7c16ad12,
        type: 3}
      propertyPath: m_LocalRotation.y
      value: -0
      objectReference: {fileID: 0}
    - target: {fileID: 5612456959052480684, guid: 4d53bf594407ff3499f6421a7c16ad12,
        type: 3}
      propertyPath: m_LocalRotation.z
      value: -0
      objectReference: {fileID: 0}
    - target: {fileID: 5612456959052480684, guid: 4d53bf594407ff3499f6421a7c16ad12,
        type: 3}
      propertyPath: m_LocalRotation.w
      value: 1
      objectReference: {fileID: 0}
    - target: {fileID: 5612456959052480684, guid: 4d53bf594407ff3499f6421a7c16ad12,
        type: 3}
      propertyPath: m_RootOrder
      value: 0
      objectReference: {fileID: 0}
    - target: {fileID: 5612456959052480684, guid: 4d53bf594407ff3499f6421a7c16ad12,
        type: 3}
      propertyPath: m_LocalEulerAnglesHint.x
      value: 0
      objectReference: {fileID: 0}
    - target: {fileID: 5612456959052480684, guid: 4d53bf594407ff3499f6421a7c16ad12,
        type: 3}
      propertyPath: m_LocalEulerAnglesHint.y
      value: 0
      objectReference: {fileID: 0}
    - target: {fileID: 5612456959052480684, guid: 4d53bf594407ff3499f6421a7c16ad12,
        type: 3}
      propertyPath: m_LocalEulerAnglesHint.z
      value: 0
      objectReference: {fileID: 0}
    - target: {fileID: 5612456959052480686, guid: 4d53bf594407ff3499f6421a7c16ad12,
        type: 3}
      propertyPath: m_Materials.Array.data[0]
      value: 
      objectReference: {fileID: 2100000, guid: cb637c139ac169b4eba6098da729d538, type: 2}
    m_RemovedComponents: []
  m_SourcePrefab: {fileID: 100100000, guid: 4d53bf594407ff3499f6421a7c16ad12, type: 3}
